Speed,Coffee,2,10,3,
Speed,Energy Bar,3,15,5,
Speed,Composite Handle,10,5,3,
Speed,High Carbon Steel,20,10,10,
Speed,Titanium Tip,20,10,15,
Speed,Whackmaster,50,5,5,
Speed,Reaper,100,10,10,
Speed,Punisher,200,20,15,
Speed,Pulverizer,500,30,20,